59011 | 60620 | 57493 | bitsPassedTilMsg: 20
59944 | 59727 | 59568 | bitsPassedTilMsg: 18
58815 | 59043 | 60498 | bitsPassedTilMsg: 10
58137 | 59573 | 58709 | bitsPassedTilMsg: 24
57666 | 58624 | 57344 | bitsPassedTilMsg: 13
60772 | 59970 | 58964 | bitsPassedTilMsg: 34
58378 | 59424 | 59474 | bitsPassedTilMsg: 46
59826 | 57672 | 60004 | bitsPassedTilMsg: 48
60616 | 57674 | 57670 | bitsPassedTilMsg: 22
59794 | 59025 | 58376 | bitsPassedTilMsg: 14
60442 | 58776 | 60433 | bitsPassedTilMsg: 22
59464 | 59095 | 59984 | bitsPassedTilMsg: 88
58152 | 59689 | 58530 | bitsPassedTilMsg: 41
58016 | 60690 | 59668 | bitsPassedTilMsg: 31
58905 | 57900 | 57511 | bitsPassedTilMsg: 40
59557 | 58672 | 57517 | bitsPassedTilMsg: 26
60203 | 58897 | 58917 | bitsPassedTilMsg: 21
58663 | 60249 | 58509 | bitsPassedTilMsg: 46
57932 | 59786 | 58991 | bitsPassedTilMsg: 21
59078 | 58218 | 59461 | bitsPassedTilMsg: 79
58639 | 57639 | 60000 | bitsPassedTilMsg: 17
58054 | 58196 | 57869 | bitsPassedTilMsg: 40
59020 | 57398 | 60780 | bitsPassedTilMsg: 33
58584 | 60840 | 58934 | bitsPassedTilMsg: 11
60525 | 58409 | 59670 | bitsPassedTilMsg: 29
60215 | 57955 | 58712 | bitsPassedTilMsg: 5
57763 | 58133 | 58440 | bitsPassedTilMsg: 30
57879 | 58656 | 58514 | bitsPassedTilMsg: 30
59750 | 58211 | 58018 | bitsPassedTilMsg: 30
60499 | 57522 | 58033 | bitsPassedTilMsg: 27
58960 | 60627 | 57923 | bitsPassedTilMsg: 12
58436 | 57711 | 57620 | bitsPassedTilMsg: 30
59991 | 60470 | 57481 | bitsPassedTilMsg: 15
60712 | 58981 | 60261 | bitsPassedTilMsg: 16
59487 | 58768 | 57943 | bitsPassedTilMsg: 8
61439 | 60746 | 57767 | bitsPassedTilMsg: 10
60607 | 58676 | 60507 | bitsPassedTilMsg: 11
57414 | 59557 | 57434 | bitsPassedTilMsg: 33
59825 | 60271 | 60079 | bitsPassedTilMsg: 13
60799 | 58448 | 58374 | bitsPassedTilMsg: 39
59927 | 58786 | 60562 | bitsPassedTilMsg: 18
59409 | 57731 | 57356 | bitsPassedTilMsg: 14
59397 | 57994 | 57392 | bitsPassedTilMsg: 25
57695 | 58134 | 58727 | bitsPassedTilMsg: 9
60621 | 58064 | 58004 | bitsPassedTilMsg: 37
57376 | 58660 | 57609 | bitsPassedTilMsg: 25
60512 | 57478 | 60064 | bitsPassedTilMsg: 20
60500 | 58794 | 59909 | bitsPassedTilMsg: 23
59427 | 57616 | 58790 | bitsPassedTilMsg: 11
57524 | 58971 | 59689 | bitsPassedTilMsg: 32
