58057
57369
60679
57925
59076
57782
60246
60754
59936
57549
58011
59050
59476
59413
58473
58564
57778
58189
60464
60504
60693
58203
58539
59744
57428
58033
58673
60228
58726
59714
59667
59725
59739
59456
60443
58501
60499
60240
58799
59521
60583
59746
58135
59607
58023
59535
57747
59061
60507
57351
59401
60751
58763
60597
60084
58913
58200
57897
58212
59915
60817
60677
59042
59692
59675
59033
57743
59724
58473
59522
58124
58636
58148
59027
57380
59654
58128
57783
57856
58186
58395
59913
58623
60000
60058
58381
57996
57474
59604
59688
60045
59557
59945
58181
58671
58548
60159
59394
57413
58181
