58497
57619
57522
60817
57504
60597
57474
59055
58884
60806
58504
59682
60229
60776
58239
59658
58921
60181
57874
60223
59776
59979
58393
58932
57367
57600
57992
59647
60047
58071
57753
58079
58952
58538
58029
59398
58165
58719
58001
60501
59392
59434
59047
58541
59079
60213
60863
57767
60054
58407
57665
58773
57473
59443
57510
57960
59699
58182
60263
58695
59732
57695
60186
57767
58956
57420
59821
60048
59537
57498
60100
57745
59595
58376
59012
58376
58137
59689
59532
57392
57644
59916
59555
57775
58182
59745
59010
60679
57610
58949
58954
60045
59563
58214
57488
58068
58904
60570
57754
57991
