%!PS-Adobe-3.0 EPSF-3.0
%%Creator: (MATLAB, The Mathworks, Inc. Version 9.2.0.538062 \(R2017a\). Operating System: Linux)
%%Title: /home/el10/Documents/Master/Thesis/RasberryBBBImplementation/masterC/kernelModules/kgetline_module/ImprovedResults/testBBBRPi/BBBT2AverageProcTimeAfter.eps
%%CreationDate: 2019-01-02T18:15:36
%%Pages: (atend)
%%BoundingBox: 0 0 643 420
%%LanguageLevel: 3
%%EndComments
%%BeginProlog
%%BeginResource: procset (Apache XML Graphics Std ProcSet) 1.2 0
%%Version: 1.2 0
%%Copyright: (Copyright 2001-2003,2010 The Apache Software Foundation. License terms: http://www.apache.org/licenses/LICENSE-2.0)
/bd{bind def}bind def
/ld{load def}bd
/GR/grestore ld
/M/moveto ld
/LJ/setlinejoin ld
/C/curveto ld
/f/fill ld
/LW/setlinewidth ld
/GC/setgray ld
/t/show ld
/N/newpath ld
/CT/concat ld
/cp/closepath ld
/S/stroke ld
/L/lineto ld
/CC/setcmykcolor ld
/A/ashow ld
/GS/gsave ld
/RC/setrgbcolor ld
/RM/rmoveto ld
/ML/setmiterlimit ld
/re {4 2 roll M
1 index 0 rlineto
0 exch rlineto
neg 0 rlineto
cp } bd
/_ctm matrix def
/_tm matrix def
/BT { _ctm currentmatrix pop matrix _tm copy pop 0 0 moveto } bd
/ET { _ctm setmatrix } bd
/iTm { _ctm setmatrix _tm concat } bd
/Tm { _tm astore pop iTm 0 0 moveto } bd
/ux 0.0 def
/uy 0.0 def
/F {
  /Tp exch def
  /Tf exch def
  Tf findfont Tp scalefont setfont
  /cf Tf def  /cs Tp def
} bd
/ULS {currentpoint /uy exch def /ux exch def} bd
/ULE {
  /Tcx currentpoint pop def
  gsave
  newpath
  cf findfont cs scalefont dup
  /FontMatrix get 0 get /Ts exch def /FontInfo get dup
  /UnderlinePosition get Ts mul /To exch def
  /UnderlineThickness get Ts mul /Tt exch def
  ux uy To add moveto  Tcx uy To add lineto
  Tt setlinewidth stroke
  grestore
} bd
/OLE {
  /Tcx currentpoint pop def
  gsave
  newpath
  cf findfont cs scalefont dup
  /FontMatrix get 0 get /Ts exch def /FontInfo get dup
  /UnderlinePosition get Ts mul /To exch def
  /UnderlineThickness get Ts mul /Tt exch def
  ux uy To add cs add moveto Tcx uy To add cs add lineto
  Tt setlinewidth stroke
  grestore
} bd
/SOE {
  /Tcx currentpoint pop def
  gsave
  newpath
  cf findfont cs scalefont dup
  /FontMatrix get 0 get /Ts exch def /FontInfo get dup
  /UnderlinePosition get Ts mul /To exch def
  /UnderlineThickness get Ts mul /Tt exch def
  ux uy To add cs 10 mul 26 idiv add moveto Tcx uy To add cs 10 mul 26 idiv add lineto
  Tt setlinewidth stroke
  grestore
} bd
/QT {
/Y22 exch store
/X22 exch store
/Y21 exch store
/X21 exch store
currentpoint
/Y21 load 2 mul add 3 div exch
/X21 load 2 mul add 3 div exch
/X21 load 2 mul /X22 load add 3 div
/Y21 load 2 mul /Y22 load add 3 div
/X22 load /Y22 load curveto
} bd
/SSPD {
dup length /d exch dict def
{
/v exch def
/k exch def
currentpagedevice k known {
/cpdv currentpagedevice k get def
v cpdv ne {
/upd false def
/nullv v type /nulltype eq def
/nullcpdv cpdv type /nulltype eq def
nullv nullcpdv or
{
/upd true def
} {
/sametype v type cpdv type eq def
sametype {
v type /arraytype eq {
/vlen v length def
/cpdvlen cpdv length def
vlen cpdvlen eq {
0 1 vlen 1 sub {
/i exch def
/obj v i get def
/cpdobj cpdv i get def
obj cpdobj ne {
/upd true def
exit
} if
} for
} {
/upd true def
} ifelse
} {
v type /dicttype eq {
v {
/dv exch def
/dk exch def
/cpddv cpdv dk get def
dv cpddv ne {
/upd true def
exit
} if
} forall
} {
/upd true def
} ifelse
} ifelse
} if
} ifelse
upd true eq {
d k v put
} if
} if
} if
} forall
d length 0 gt {
d setpagedevice
} if
} bd
/RE { % /NewFontName [NewEncodingArray] /FontName RE -
  findfont dup length dict begin
  {
    1 index /FID ne
    {def} {pop pop} ifelse
  } forall
  /Encoding exch def
  /FontName 1 index def
  currentdict definefont pop
  end
} bind def
%%EndResource
%%BeginResource: procset (Apache XML Graphics EPS ProcSet) 1.0 0
%%Version: 1.0 0
%%Copyright: (Copyright 2002-2003 The Apache Software Foundation. License terms: http://www.apache.org/licenses/LICENSE-2.0)
/BeginEPSF { %def
/b4_Inc_state save def         % Save state for cleanup
/dict_count countdictstack def % Count objects on dict stack
/op_count count 1 sub def      % Count objects on operand stack
userdict begin                 % Push userdict on dict stack
/showpage { } def              % Redefine showpage, { } = null proc
0 setgray 0 setlinecap         % Prepare graphics state
1 setlinewidth 0 setlinejoin
10 setmiterlimit [ ] 0 setdash newpath
/languagelevel where           % If level not equal to 1 then
{pop languagelevel             % set strokeadjust and
1 ne                           % overprint to their defaults.
{false setstrokeadjust false setoverprint
} if
} if
} bd
/EndEPSF { %def
count op_count sub {pop} repeat            % Clean up stacks
countdictstack dict_count sub {end} repeat
b4_Inc_state restore
} bd
%%EndResource
%FOPBeginFontDict
%%IncludeResource: font Courier-Bold
%%IncludeResource: font Helvetica
%%IncludeResource: font Courier-BoldOblique
%%IncludeResource: font Courier-Oblique
%%IncludeResource: font Times-Roman
%%IncludeResource: font Helvetica-BoldOblique
%%IncludeResource: font Helvetica-Bold
%%IncludeResource: font Helvetica-Oblique
%%IncludeResource: font Times-BoldItalic
%%IncludeResource: font Courier
%%IncludeResource: font Times-Italic
%%IncludeResource: font Times-Bold
%%IncludeResource: font Symbol
%%IncludeResource: font ZapfDingbats
%FOPEndFontDict
%%BeginResource: encoding WinAnsiEncoding
/WinAnsiEncoding [
/.notdef /.notdef /.notdef /.notdef /.notdef
/.notdef /.notdef /.notdef /.notdef /.notdef
/.notdef /.notdef /.notdef /.notdef /.notdef
/.notdef /.notdef /.notdef /.notdef /.notdef
/.notdef /.notdef /.notdef /.notdef /.notdef
/.notdef /.notdef /.notdef /.notdef /.notdef
/.notdef /.notdef /space /exclam /quotedbl
/numbersign /dollar /percent /ampersand /quotesingle
/parenleft /parenright /asterisk /plus /comma
/hyphen /period /slash /zero /one
/two /three /four /five /six
/seven /eight /nine /colon /semicolon
/less /equal /greater /question /at
/A /B /C /D /E
/F /G /H /I /J
/K /L /M /N /O
/P /Q /R /S /T
/U /V /W /X /Y
/Z /bracketleft /backslash /bracketright /asciicircum
/underscore /quoteleft /a /b /c
/d /e /f /g /h
/i /j /k /l /m
/n /o /p /q /r
/s /t /u /v /w
/x /y /z /braceleft /bar
/braceright /asciitilde /bullet /Euro /bullet
/quotesinglbase /florin /quotedblbase /ellipsis /dagger
/daggerdbl /circumflex /perthousand /Scaron /guilsinglleft
/OE /bullet /Zcaron /bullet /bullet
/quoteleft /quoteright /quotedblleft /quotedblright /bullet
/endash /emdash /asciitilde /trademark /scaron
/guilsinglright /oe /bullet /zcaron /Ydieresis
/space /exclamdown /cent /sterling /currency
/yen /brokenbar /section /dieresis /copyright
/ordfeminine /guillemotleft /logicalnot /sfthyphen /registered
/macron /degree /plusminus /twosuperior /threesuperior
/acute /mu /paragraph /middot /cedilla
/onesuperior /ordmasculine /guillemotright /onequarter /onehalf
/threequarters /questiondown /Agrave /Aacute /Acircumflex
/Atilde /Adieresis /Aring /AE /Ccedilla
/Egrave /Eacute /Ecircumflex /Edieresis /Igrave
/Iacute /Icircumflex /Idieresis /Eth /Ntilde
/Ograve /Oacute /Ocircumflex /Otilde /Odieresis
/multiply /Oslash /Ugrave /Uacute /Ucircumflex
/Udieresis /Yacute /Thorn /germandbls /agrave
/aacute /acircumflex /atilde /adieresis /aring
/ae /ccedilla /egrave /eacute /ecircumflex
/edieresis /igrave /iacute /icircumflex /idieresis
/eth /ntilde /ograve /oacute /ocircumflex
/otilde /odieresis /divide /oslash /ugrave
/uacute /ucircumflex /udieresis /yacute /thorn
/ydieresis
] def
%%EndResource
%FOPBeginFontReencode
/Courier-Bold findfont
dup length dict begin
  {1 index /FID ne {def} {pop pop} ifelse} forall
  /Encoding WinAnsiEncoding def
  currentdict
end
/Courier-Bold exch definefont pop
/Helvetica findfont
dup length dict begin
  {1 index /FID ne {def} {pop pop} ifelse} forall
  /Encoding WinAnsiEncoding def
  currentdict
end
/Helvetica exch definefont pop
/Courier-BoldOblique findfont
dup length dict begin
  {1 index /FID ne {def} {pop pop} ifelse} forall
  /Encoding WinAnsiEncoding def
  currentdict
end
/Courier-BoldOblique exch definefont pop
/Courier-Oblique findfont
dup length dict begin
  {1 index /FID ne {def} {pop pop} ifelse} forall
  /Encoding WinAnsiEncoding def
  currentdict
end
/Courier-Oblique exch definefont pop
/Times-Roman findfont
dup length dict begin
  {1 index /FID ne {def} {pop pop} ifelse} forall
  /Encoding WinAnsiEncoding def
  currentdict
end
/Times-Roman exch definefont pop
/Helvetica-BoldOblique findfont
dup length dict begin
  {1 index /FID ne {def} {pop pop} ifelse} forall
  /Encoding WinAnsiEncoding def
  currentdict
end
/Helvetica-BoldOblique exch definefont pop
/Helvetica-Bold findfont
dup length dict begin
  {1 index /FID ne {def} {pop pop} ifelse} forall
  /Encoding WinAnsiEncoding def
  currentdict
end
/Helvetica-Bold exch definefont pop
/Helvetica-Oblique findfont
dup length dict begin
  {1 index /FID ne {def} {pop pop} ifelse} forall
  /Encoding WinAnsiEncoding def
  currentdict
end
/Helvetica-Oblique exch definefont pop
/Times-BoldItalic findfont
dup length dict begin
  {1 index /FID ne {def} {pop pop} ifelse} forall
  /Encoding WinAnsiEncoding def
  currentdict
end
/Times-BoldItalic exch definefont pop
/Courier findfont
dup length dict begin
  {1 index /FID ne {def} {pop pop} ifelse} forall
  /Encoding WinAnsiEncoding def
  currentdict
end
/Courier exch definefont pop
/Times-Italic findfont
dup length dict begin
  {1 index /FID ne {def} {pop pop} ifelse} forall
  /Encoding WinAnsiEncoding def
  currentdict
end
/Times-Italic exch definefont pop
/Times-Bold findfont
dup length dict begin
  {1 index /FID ne {def} {pop pop} ifelse} forall
  /Encoding WinAnsiEncoding def
  currentdict
end
/Times-Bold exch definefont pop
%FOPEndFontReencode
%%EndProlog
%%Page: 1 1
%%PageBoundingBox: 0 0 643 420
%%BeginPageSetup
[1 0 0 -1 0 420] CT
%%EndPageSetup
GS
[0.75 0 0 0.75 0 0] CT
1 GC
N
0 0 857 560 re
f
GR
GS
[0.75 0 0 0.75 0 0] CT
1 GC
N
0 0 857 560 re
f
GR
GS
[0.75 0 0 0.75 0 0] CT
1 GC
N
111 498 M
776 498 L
776 41.999 L
111 41.999 L
cp
f
GR
GS
[0.75 0 0 0.75 0 0] CT
0.149 GC
2 setlinecap
1 LJ
0.667 LW
N
111 498 M
776 498 L
S
GR
GS
[0.75 0 0 0.75 0 0] CT
0.149 GC
2 setlinecap
1 LJ
0.667 LW
N
111 41.999 M
776 41.999 L
S
GR
GS
[0.75 0 0 0.75 0 0] CT
0.149 GC
2 setlinecap
1 LJ
0.667 LW
N
155.333 498 M
155.333 491.349 L
S
GR
GS
[0.75 0 0 0.75 0 0] CT
0.149 GC
2 setlinecap
1 LJ
0.667 LW
N
199.667 498 M
199.667 491.349 L
S
GR
GS
[0.75 0 0 0.75 0 0] CT
0.149 GC
2 setlinecap
1 LJ
0.667 LW
N
244 498 M
244 491.349 L
S
GR
GS
[0.75 0 0 0.75 0 0] CT
0.149 GC
2 setlinecap
1 LJ
0.667 LW
N
288.333 498 M
288.333 491.349 L
S
GR
GS
[0.75 0 0 0.75 0 0] CT
0.149 GC
2 setlinecap
1 LJ
0.667 LW
N
332.667 498 M
332.667 491.349 L
S
GR
GS
[0.75 0 0 0.75 0 0] CT
0.149 GC
2 setlinecap
1 LJ
0.667 LW
N
377 498 M
377 491.349 L
S
GR
GS
[0.75 0 0 0.75 0 0] CT
0.149 GC
2 setlinecap
1 LJ
0.667 LW
N
421.333 498 M
421.333 491.349 L
S
GR
GS
[0.75 0 0 0.75 0 0] CT
0.149 GC
2 setlinecap
1 LJ
0.667 LW
N
465.667 498 M
465.667 491.349 L
S
GR
GS
[0.75 0 0 0.75 0 0] CT
0.149 GC
2 setlinecap
1 LJ
0.667 LW
N
510 498 M
510 491.349 L
S
GR
GS
[0.75 0 0 0.75 0 0] CT
0.149 GC
2 setlinecap
1 LJ
0.667 LW
N
554.333 498 M
554.333 491.349 L
S
GR
GS
[0.75 0 0 0.75 0 0] CT
0.149 GC
2 setlinecap
1 LJ
0.667 LW
N
598.667 498 M
598.667 491.349 L
S
GR
GS
[0.75 0 0 0.75 0 0] CT
0.149 GC
2 setlinecap
1 LJ
0.667 LW
N
643 498 M
643 491.349 L
S
GR
GS
[0.75 0 0 0.75 0 0] CT
0.149 GC
2 setlinecap
1 LJ
0.667 LW
N
687.333 498 M
687.333 491.349 L
S
GR
GS
[0.75 0 0 0.75 0 0] CT
0.149 GC
2 setlinecap
1 LJ
0.667 LW
N
731.667 498 M
731.667 491.349 L
S
GR
GS
[0.75 0 0 0.75 0 0] CT
0.149 GC
2 setlinecap
1 LJ
0.667 LW
N
776 498 M
776 491.349 L
S
GR
GS
[0.75 0 0 0.75 0 0] CT
0.149 GC
2 setlinecap
1 LJ
0.667 LW
N
155.333 41.999 M
155.333 48.65 L
S
GR
GS
[0.75 0 0 0.75 0 0] CT
0.149 GC
2 setlinecap
1 LJ
0.667 LW
N
199.667 41.999 M
199.667 48.65 L
S
GR
GS
[0.75 0 0 0.75 0 0] CT
0.149 GC
2 setlinecap
1 LJ
0.667 LW
N
244 41.999 M
244 48.65 L
S
GR
GS
[0.75 0 0 0.75 0 0] CT
0.149 GC
2 setlinecap
1 LJ
0.667 LW
N
288.333 41.999 M
288.333 48.65 L
S
GR
GS
[0.75 0 0 0.75 0 0] CT
0.149 GC
2 setlinecap
1 LJ
0.667 LW
N
332.667 41.999 M
332.667 48.65 L
S
GR
GS
[0.75 0 0 0.75 0 0] CT
0.149 GC
2 setlinecap
1 LJ
0.667 LW
N
377 41.999 M
377 48.65 L
S
GR
GS
[0.75 0 0 0.75 0 0] CT
0.149 GC
2 setlinecap
1 LJ
0.667 LW
N
421.333 41.999 M
421.333 48.65 L
S
GR
GS
[0.75 0 0 0.75 0 0] CT
0.149 GC
2 setlinecap
1 LJ
0.667 LW
N
465.667 41.999 M
465.667 48.65 L
S
GR
GS
[0.75 0 0 0.75 0 0] CT
0.149 GC
2 setlinecap
1 LJ
0.667 LW
N
510 41.999 M
510 48.65 L
S
GR
GS
[0.75 0 0 0.75 0 0] CT
0.149 GC
2 setlinecap
1 LJ
0.667 LW
N
554.333 41.999 M
554.333 48.65 L
S
GR
GS
[0.75 0 0 0.75 0 0] CT
0.149 GC
2 setlinecap
1 LJ
0.667 LW
N
598.667 41.999 M
598.667 48.65 L
S
GR
GS
[0.75 0 0 0.75 0 0] CT
0.149 GC
2 setlinecap
1 LJ
0.667 LW
N
643 41.999 M
643 48.65 L
S
GR
GS
[0.75 0 0 0.75 0 0] CT
0.149 GC
2 setlinecap
1 LJ
0.667 LW
N
687.333 41.999 M
687.333 48.65 L
S
GR
GS
[0.75 0 0 0.75 0 0] CT
0.149 GC
2 setlinecap
1 LJ
0.667 LW
N
731.667 41.999 M
731.667 48.65 L
S
GR
GS
[0.75 0 0 0.75 0 0] CT
0.149 GC
2 setlinecap
1 LJ
0.667 LW
N
776 41.999 M
776 48.65 L
S
GR
GS
[0.75 0 0 0.75 116.5 377.49941] CT
0.149 GC
/Helvetica 13.333 F
GS
[1 0 0 1 0 0] CT
-14.5 13 moveto 
1 -1 scale
(1.9  ) t 
GR
GR
GS
[0.75 0 0 0.75 149.75 377.49941] CT
0.149 GC
/Helvetica 13.333 F
GS
[1 0 0 1 0 0] CT
-14.5 13 moveto 
1 -1 scale
(3.8  ) t 
GR
GR
GS
[0.75 0 0 0.75 183 377.49941] CT
0.149 GC
/Helvetica 13.333 F
GS
[1 0 0 1 0 0] CT
-14.5 13 moveto 
1 -1 scale
(7.7  ) t 
GR
GR
GS
[0.75 0 0 0.75 216.25001 377.49941] CT
0.149 GC
/Helvetica 13.333 F
GS
[1 0 0 1 0 0] CT
-14.5 13 moveto 
1 -1 scale
(9.6  ) t 
GR
GR
GS
[0.75 0 0 0.75 249.49999 377.49941] CT
0.149 GC
/Helvetica 13.333 F
GS
[1 0 0 1 0 0] CT
-17 13 moveto 
1 -1 scale
(12.8 ) t 
GR
GR
GS
[0.75 0 0 0.75 282.75 377.49941] CT
0.149 GC
/Helvetica 13.333 F
GS
[1 0 0 1 0 0] CT
-17 13 moveto 
1 -1 scale
(19.1 ) t 
GR
GR
GS
[0.75 0 0 0.75 316.00001 377.49941] CT
0.149 GC
/Helvetica 13.333 F
GS
[1 0 0 1 0 0] CT
-17 13 moveto 
1 -1 scale
(21.2 ) t 
GR
GR
GS
[0.75 0 0 0.75 349.24999 377.49941] CT
0.149 GC
/Helvetica 13.333 F
GS
[1 0 0 1 0 0] CT
-17 13 moveto 
1 -1 scale
(23.9 ) t 
GR
GR
GS
[0.75 0 0 0.75 382.5 377.49941] CT
0.149 GC
/Helvetica 13.333 F
GS
[1 0 0 1 0 0] CT
-17 13 moveto 
1 -1 scale
(27.4 ) t 
GR
GR
GS
[0.75 0 0 0.75 415.74998 377.49941] CT
0.149 GC
/Helvetica 13.333 F
GS
[1 0 0 1 0 0] CT
-14.5 13 moveto 
1 -1 scale
(32   ) t 
GR
GR
GS
[0.75 0 0 0.75 449.00002 377.49941] CT
0.149 GC
/Helvetica 13.333 F
GS
[1 0 0 1 0 0] CT
-17 13 moveto 
1 -1 scale
(38.3 ) t 
GR
GR
GS
[0.75 0 0 0.75 482.25 377.49941] CT
0.149 GC
/Helvetica 13.333 F
GS
[1 0 0 1 0 0] CT
-17 13 moveto 
1 -1 scale
(47.8 ) t 
GR
GR
GS
[0.75 0 0 0.75 515.49998 377.49941] CT
0.149 GC
/Helvetica 13.333 F
GS
[1 0 0 1 0 0] CT
-17 13 moveto 
1 -1 scale
(63.7 ) t 
GR
GR
GS
[0.75 0 0 0.75 548.75002 377.49941] CT
0.149 GC
/Helvetica 13.333 F
GS
[1 0 0 1 0 0] CT
-17 13 moveto 
1 -1 scale
(95.7 ) t 
GR
GR
GS
[0.75 0 0 0.75 582 377.49941] CT
0.149 GC
/Helvetica 13.333 F
GS
[1 0 0 1 0 0] CT
-19 13 moveto 
1 -1 scale
(191.4) t 
GR
GR
GS
[0.75 0 0 0.75 332.62523 391.25015] CT
0.149 GC
/Helvetica 14.667 F
GS
[1 0 0 1 0 0] CT
-64 14 moveto 
1 -1 scale
(Data Rate \(kbps\)) t 
GR
GR
GS
[0.75 0 0 0.75 0 0] CT
0.149 GC
2 setlinecap
1 LJ
0.667 LW
N
111 498 M
111 41.999 L
S
GR
GS
[0.75 0 0 0.75 0 0] CT
0.149 GC
2 setlinecap
1 LJ
0.667 LW
N
776 498 M
776 41.999 L
S
GR
GS
[0.75 0 0 0.75 0 0] CT
0.149 GC
2 setlinecap
1 LJ
0.667 LW
N
111 498 M
117.65 498 L
S
GR
GS
[0.75 0 0 0.75 0 0] CT
0.149 GC
2 setlinecap
1 LJ
0.667 LW
N
111 447.334 M
117.65 447.334 L
S
GR
GS
[0.75 0 0 0.75 0 0] CT
0.149 GC
2 setlinecap
1 LJ
0.667 LW
N
111 396.666 M
117.65 396.666 L
S
GR
GS
[0.75 0 0 0.75 0 0] CT
0.149 GC
2 setlinecap
1 LJ
0.667 LW
N
111 346 M
117.65 346 L
S
GR
GS
[0.75 0 0 0.75 0 0] CT
0.149 GC
2 setlinecap
1 LJ
0.667 LW
N
111 295.333 M
117.65 295.333 L
S
GR
GS
[0.75 0 0 0.75 0 0] CT
0.149 GC
2 setlinecap
1 LJ
0.667 LW
N
111 244.667 M
117.65 244.667 L
S
GR
GS
[0.75 0 0 0.75 0 0] CT
0.149 GC
2 setlinecap
1 LJ
0.667 LW
N
111 194.001 M
117.65 194.001 L
S
GR
GS
[0.75 0 0 0.75 0 0] CT
0.149 GC
2 setlinecap
1 LJ
0.667 LW
N
111 143.333 M
117.65 143.333 L
S
GR
GS
[0.75 0 0 0.75 0 0] CT
0.149 GC
2 setlinecap
1 LJ
0.667 LW
N
111 92.667 M
117.65 92.667 L
S
GR
GS
[0.75 0 0 0.75 0 0] CT
0.149 GC
2 setlinecap
1 LJ
0.667 LW
N
111 41.999 M
117.65 41.999 L
S
GR
GS
[0.75 0 0 0.75 0 0] CT
0.149 GC
2 setlinecap
1 LJ
0.667 LW
N
776 498 M
769.35 498 L
S
GR
GS
[0.75 0 0 0.75 0 0] CT
0.149 GC
2 setlinecap
1 LJ
0.667 LW
N
776 447.334 M
769.35 447.334 L
S
GR
GS
[0.75 0 0 0.75 0 0] CT
0.149 GC
2 setlinecap
1 LJ
0.667 LW
N
776 396.666 M
769.35 396.666 L
S
GR
GS
[0.75 0 0 0.75 0 0] CT
0.149 GC
2 setlinecap
1 LJ
0.667 LW
N
776 346 M
769.35 346 L
S
GR
GS
[0.75 0 0 0.75 0 0] CT
0.149 GC
2 setlinecap
1 LJ
0.667 LW
N
776 295.333 M
769.35 295.333 L
S
GR
GS
[0.75 0 0 0.75 0 0] CT
0.149 GC
2 setlinecap
1 LJ
0.667 LW
N
776 244.667 M
769.35 244.667 L
S
GR
GS
[0.75 0 0 0.75 0 0] CT
0.149 GC
2 setlinecap
1 LJ
0.667 LW
N
776 194.001 M
769.35 194.001 L
S
GR
GS
[0.75 0 0 0.75 0 0] CT
0.149 GC
2 setlinecap
1 LJ
0.667 LW
N
776 143.333 M
769.35 143.333 L
S
GR
GS
[0.75 0 0 0.75 0 0] CT
0.149 GC
2 setlinecap
1 LJ
0.667 LW
N
776 92.667 M
769.35 92.667 L
S
GR
GS
[0.75 0 0 0.75 0 0] CT
0.149 GC
2 setlinecap
1 LJ
0.667 LW
N
776 41.999 M
769.35 41.999 L
S
GR
GS
[0.75 0 0 0.75 79.25 373.5] CT
0.149 GC
/Helvetica 13.333 F
GS
[1 0 0 1 0 0] CT
-17 4.5 moveto 
1 -1 scale
(33) t 
GR
GR
GS
[0.75 0 0 0.75 79.25 335.50058] CT
0.149 GC
/Helvetica 13.333 F
GS
[1 0 0 1 0 0] CT
-29 4.5 moveto 
1 -1 scale
(33.1) t 
GR
GR
GS
[0.75 0 0 0.75 79.25 297.49972] CT
0.149 GC
/Helvetica 13.333 F
GS
[1 0 0 1 0 0] CT
-29 4.5 moveto 
1 -1 scale
(33.2) t 
GR
GR
GS
[0.75 0 0 0.75 79.25 259.5003] CT
0.149 GC
/Helvetica 13.333 F
GS
[1 0 0 1 0 0] CT
-29 4.5 moveto 
1 -1 scale
(33.3) t 
GR
GR
GS
[0.75 0 0 0.75 79.25 221.49941] CT
0.149 GC
/Helvetica 13.333 F
GS
[1 0 0 1 0 0] CT
-29 4.5 moveto 
1 -1 scale
(33.4) t 
GR
GR
GS
[0.75 0 0 0.75 79.25 183.5] CT
0.149 GC
/Helvetica 13.333 F
GS
[1 0 0 1 0 0] CT
-29 4.5 moveto 
1 -1 scale
(33.5) t 
GR
GR
GS
[0.75 0 0 0.75 79.25 145.50058] CT
0.149 GC
/Helvetica 13.333 F
GS
[1 0 0 1 0 0] CT
-29 4.5 moveto 
1 -1 scale
(33.6) t 
GR
GR
GS
[0.75 0 0 0.75 79.25 107.49971] CT
0.149 GC
/Helvetica 13.333 F
GS
[1 0 0 1 0 0] CT
-29 4.5 moveto 
1 -1 scale
(33.7) t 
GR
GR
GS
[0.75 0 0 0.75 79.25 69.50029] CT
0.149 GC
/Helvetica 13.333 F
GS
[1 0 0 1 0 0] CT
-29 4.5 moveto 
1 -1 scale
(33.8) t 
GR
GR
GS
[0.75 0 0 0.75 79.25 31.49942] CT
0.149 GC
/Helvetica 13.333 F
GS
[1 0 0 1 0 0] CT
-29 4.5 moveto 
1 -1 scale
(33.9) t 
GR
GR
GS
[0 -0.75 0.75 0 54.5 202.4997] CT
0.149 GC
/Helvetica 14.667 F
GS
[1 0 0 1 0 0] CT
-135 -4 moveto 
1 -1 scale
(T2 Average Processing Time \(msec\)) t 
GR
GR
GS
[0.75 0 0 0.75 0 0] CT
0.102 0.702 0.8 RC
1 LJ
2.667 LW
N
155.333 431.466 M
199.667 444.7 L
244 399.144 L
288.333 397.886 L
332.667 372.161 L
377 355.425 L
421.333 325.519 L
465.667 353.817 L
510 346.14 L
554.333 372.141 L
598.667 346.654 L
643 334.038 L
687.333 277.742 L
731.667 189.807 L
776 47.032 L
S
GR
GS
[0.75 0 0 0.75 0 0] CT
0.467 0.675 0.188 RC
1 LJ
0.667 LW
N
136.09 498.054 M
137.689 495.46 L
139.913 491.914 L
142.137 488.425 L
144.361 484.998 L
146.585 481.629 L
148.809 478.319 L
151.033 475.066 L
153.258 471.873 L
155.482 468.734 L
157.706 465.653 L
159.93 462.63 L
162.154 459.661 L
164.378 456.747 L
166.602 453.888 L
168.826 451.084 L
171.05 448.333 L
173.274 445.637 L
175.498 442.993 L
177.722 440.401 L
179.946 437.862 L
182.171 435.372 L
184.395 432.935 L
186.619 430.548 L
188.843 428.211 L
191.067 425.923 L
193.291 423.685 L
195.515 421.495 L
197.739 419.353 L
199.963 417.26 L
202.187 415.213 L
204.411 413.213 L
206.635 411.259 L
208.86 409.349 L
211.084 407.486 L
213.308 405.667 L
215.532 403.893 L
217.756 402.163 L
219.98 400.476 L
222.204 398.831 L
224.428 397.229 L
226.652 395.669 L
228.876 394.15 L
231.1 392.673 L
233.324 391.235 L
235.548 389.838 L
237.773 388.479 L
239.997 387.161 L
242.221 385.879 L
244.445 384.637 L
246.669 383.433 L
248.893 382.265 L
251.117 381.133 L
253.341 380.039 L
255.565 378.979 L
257.789 377.955 L
260.013 376.965 L
262.237 376.009 L
264.462 375.087 L
266.686 374.2 L
268.91 373.343 L
271.134 372.52 L
273.358 371.73 L
275.582 370.968 L
277.806 370.239 L
280.03 369.54 L
282.254 368.871 L
284.478 368.231 L
286.702 367.62 L
288.926 367.039 L
291.151 366.484 L
293.375 365.956 L
295.599 365.458 L
297.823 364.984 L
300.047 364.538 L
302.271 364.116 L
304.495 363.72 L
306.719 363.347 L
308.943 362.999 L
311.167 362.676 L
313.391 362.375 L
315.615 362.097 L
317.839 361.841 L
320.064 361.608 L
322.288 361.395 L
324.512 361.202 L
326.736 361.032 L
328.96 360.879 L
331.184 360.746 L
333.408 360.633 L
335.632 360.539 L
337.856 360.461 L
340.08 360.402 L
342.304 360.359 L
344.528 360.332 L
346.753 360.322 L
348.977 360.326 L
351.201 360.347 L
353.425 360.382 L
355.649 360.431 L
357.873 360.494 L
360.097 360.57 L
362.321 360.659 L
364.545 360.759 L
366.769 360.871 L
368.993 360.995 L
371.217 361.128 L
373.441 361.273 L
375.666 361.428 L
377.89 361.592 L
380.114 361.764 L
382.338 361.946 L
384.562 362.133 L
386.786 362.33 L
389.01 362.533 L
391.234 362.742 L
393.458 362.959 L
395.682 363.179 L
397.906 363.405 L
400.13 363.635 L
402.355 363.871 L
404.579 364.109 L
406.803 364.35 L
409.027 364.594 L
411.251 364.839 L
413.475 365.087 L
415.699 365.336 L
417.923 365.585 L
420.147 365.835 L
422.371 366.084 L
424.595 366.333 L
426.819 366.581 L
429.043 366.826 L
431.268 367.07 L
433.492 367.311 L
435.716 367.549 L
437.94 367.783 L
440.164 368.013 L
442.388 368.239 L
444.612 368.459 L
446.836 368.674 L
449.06 368.884 L
451.284 369.086 L
453.508 369.283 L
455.732 369.47 L
457.957 369.65 L
460.181 369.822 L
462.405 369.984 L
464.629 370.139 L
466.853 370.282 L
469.077 370.415 L
471.301 370.539 L
473.525 370.649 L
475.749 370.75 L
477.973 370.837 L
480.197 370.912 L
482.421 370.974 L
484.646 371.02 L
486.87 371.055 L
489.094 371.074 L
491.318 371.078 L
493.542 371.067 L
495.766 371.038 L
497.99 370.993 L
500.214 370.933 L
502.438 370.854 L
504.662 370.757 L
506.886 370.643 L
509.11 370.508 L
511.334 370.355 L
513.559 370.181 L
515.783 369.988 L
518.007 369.774 L
520.231 369.538 L
522.455 369.281 L
524.679 369 L
526.903 368.697 L
529.127 368.372 L
531.351 368.022 L
533.575 367.648 L
535.799 367.249 L
538.023 366.826 L
540.247 366.376 L
542.472 365.9 L
544.696 365.4 L
546.92 364.87 L
549.144 364.313 L
551.368 363.728 L
553.592 363.115 L
555.816 362.473 L
558.04 361.803 L
560.264 361.101 L
562.488 360.369 L
564.712 359.605 L
566.936 358.811 L
569.161 357.986 L
571.385 357.127 L
573.609 356.236 L
575.833 355.311 L
578.057 354.354 L
580.281 353.36 L
582.505 352.334 L
584.729 351.271 L
586.953 350.173 L
589.177 349.039 L
591.401 347.867 L
593.625 346.659 L
595.849 345.413 L
598.074 344.129 L
600.298 342.807 L
602.522 341.447 L
604.746 340.046 L
606.97 338.606 L
609.194 337.123 L
611.418 335.602 L
613.642 334.038 L
615.866 332.432 L
618.09 330.784 L
620.314 329.092 L
622.538 327.359 L
624.763 325.581 L
626.987 323.758 L
629.211 321.893 L
631.435 319.979 L
633.659 318.021 L
635.883 316.017 L
638.107 313.966 L
640.331 311.867 L
642.555 309.722 L
644.779 307.528 L
647.003 305.286 L
649.227 302.994 L
651.452 300.654 L
653.676 298.263 L
655.9 295.82 L
658.124 293.328 L
660.348 290.783 L
662.572 288.187 L
664.796 285.539 L
667.02 282.837 L
669.244 280.083 L
671.468 277.273 L
673.692 274.41 L
675.916 271.492 L
678.141 268.519 L
680.365 265.49 L
682.589 262.404 L
684.813 259.263 L
687.037 256.062 L
689.261 252.806 L
691.485 249.491 L
693.709 246.116 L
695.933 242.684 L
698.157 239.191 L
700.381 235.639 L
702.605 232.024 L
704.829 228.35 L
707.053 224.614 L
709.278 220.816 L
711.502 216.956 L
713.726 213.033 L
715.95 209.046 L
718.174 204.996 L
720.398 200.881 L
722.622 196.701 L
724.846 192.455 L
727.07 188.144 L
729.294 183.767 L
731.518 179.321 L
733.742 174.81 L
735.967 170.231 L
738.191 165.583 L
740.415 160.867 L
742.639 156.082 L
744.863 151.226 L
747.087 146.302 L
749.311 141.305 L
751.535 136.238 L
753.759 131.098 L
755.983 125.89 L
758.207 120.605 L
760.431 115.25 L
762.656 109.819 L
764.88 104.316 L
767.104 98.738 L
769.328 93.085 L
771.552 87.356 L
773.776 81.552 L
776 75.67 L
S
GR
GS
[0.75 0 0 0.75 108 58.5] CT
/Helvetica 13.333 F
GS
[1 0 0 1 0 0] CT
0 0 moveto 
1 -1 scale
( ) t 
GR
GR
GS
[0.75 0 0 0.75 108 74.25] CT
/Helvetica 13.333 F
GS
[1 0 0 1 0 0] CT
0 0 moveto 
1 -1 scale
(y = 0.0012*x) t 
GR
GR
GS
[0.75 0 0 0.75 173.25 69.75] CT
/Helvetica 10.667 F
GS
[1 0 0 1 0 0] CT
0 0 moveto 
1 -1 scale
(3) t 
GR
GR
GS
[0.75 0 0 0.75 178.5 74.25] CT
/Helvetica 13.333 F
GS
[1 0 0 1 0 0] CT
0 0 moveto 
1 -1 scale
( - 0.026*x) t 
GR
GR
GS
[0.75 0 0 0.75 227.25 69.75] CT
/Helvetica 10.667 F
GS
[1 0 0 1 0 0] CT
0 0 moveto 
1 -1 scale
(2) t 
GR
GR
GS
[0.75 0 0 0.75 232.5 74.25] CT
/Helvetica 13.333 F
GS
[1 0 0 1 0 0] CT
0 0 moveto 
1 -1 scale
( + 0.17*x + 33) t 
GR
GR
GS
[0.75 0 0 0.75 0 0] CT
1 GC
N
656 89 M
656 54 L
751 54 L
751 89 L
cp
f
GR
GS
[0.75 0 0 0.75 527.25 47.72826] CT
/Helvetica 12 F
GS
[1 0 0 1 0 0] CT
0 4.5 moveto 
1 -1 scale
(data) t 
GR
GR
GS
[0.75 0 0 0.75 0 0] CT
0.102 0.702 0.8 RC
1 LJ
2.667 LW
N
660 63.638 M
700 63.638 L
S
GR
GS
[0.75 0 0 0.75 527.25 59.52174] CT
/Helvetica 12 F
GS
[1 0 0 1 0 0] CT
0 4.5 moveto 
1 -1 scale
(   cubic) t 
GR
GR
GS
[0.75 0 0 0.75 0 0] CT
0.467 0.675 0.188 RC
1 LJ
0.667 LW
N
660 79.362 M
700 79.362 L
S
GR
GS
[0.75 0 0 0.75 0 0] CT
0.149 GC
10.0 ML
0.667 LW
N
656 89 M
656 54 L
751 54 L
751 89 L
cp
S
GR
%%Trailer
%%Pages: 1
%%EOF
