58530 | 58989 
58477 | 60042 
59446 | 59554 
59096 | 60597 
60460 | 59568 
57487 | 60432 
59663 | 59478 
59717 | 59715 
57778 | 60184 
58183 | 60255 
60437 | 60780 
59017 | 60451 
60203 | 58179 
57748 | 60168 
60721 | 59401 
60488 | 60114 
58057 | 57699 
60467 | 59929 
60012 | 57677 
60256 | 60459 
57927 | 59034 
59727 | 60163 
60057 | 60102 
60114 | 59419 
57383 | 57472 
58514 | 59803 
57776 | 60031 
58439 | 60438 
57413 | 58970 
60557 | 59697 
