59397 | 59492 | 59397 | bitsPassedTilMsg: 5
57865 | 60505 | 57865 | bitsPassedTilMsg: 8
58783 | 60633 | 58783 | bitsPassedTilMsg: 1
60036 | 58026 | 0 | bitsPassedTilMsg: 0
57411 | 57387 | 0 | bitsPassedTilMsg: 0
58890 | 60488 | 0 | bitsPassedTilMsg: 0
60628 | 59445 | 0 | bitsPassedTilMsg: 0
57956 | 60423 | 0 | bitsPassedTilMsg: 0
60121 | 61439 | 60121 | bitsPassedTilMsg: 8
57933 | 60496 | 0 | bitsPassedTilMsg: 3648112824
57648 | 60443 | 0 | bitsPassedTilMsg: 3230976544
58550 | 59815 | 0 | bitsPassedTilMsg: 3230978688
57471 | 60241 | 0 | bitsPassedTilMsg: 3648321716
57735 | 57353 | 57735 | bitsPassedTilMsg: 4
60847 | 60845 | 60847 | bitsPassedTilMsg: 1
60501 | 58200 | 60501 | bitsPassedTilMsg: 4
60855 | 60849 | 60855 | bitsPassedTilMsg: 5
60802 | 59819 | 0 | bitsPassedTilMsg: 3648112824
60688 | 58507 | 0 | bitsPassedTilMsg: 3221676252
57382 | 59669 | 57382 | bitsPassedTilMsg: 7