1110000000000000
1110000000000001
1110000000000010
1110000000000011
1110000000000100
1110000000000101
1110000000000110
1110000000000111
1110000000001000
1110000000001001
1110000000001010
1110000000001011
1110000000001100
1110000000001101
1110000000001111
1110000000010000
1110000000010001
1110000000010010
1110000000010011
1110000000010100
1110000000010101
1110000000010110
1110000000010111
1110000000011000
1110000000011001
1110000000011010
1110000000011011
1110000000011111
1110000000100000
1110000000100001
1110000000100010
1110000000100011
1110000000100100
1110000000100101
1110000000100110
1110000000100111
1110000000101000
1110000000101001
1110000000101010
1110000000101011
1110000000101100
1110000000101101
1110000000101111
1110000000110000
1110000000110001
1110000000110010
1110000000110011
1110000000110100
1110000000110101
1110000000110110
1110000000110111
1110000000111111
1110000001000000
1110000001000001
1110000001000010
1110000001000011
1110000001000100
1110000001000101
1110000001000110
1110000001000111
1110000001001000
1110000001001001
1110000001001010
1110000001001011
1110000001001100
1110000001001101
1110000001001111
1110000001010000
1110000001010001
1110000001010010
1110000001010011
1110000001010100
1110000001010101
1110000001010110
1110000001010111
1110000001011000
1110000001011001
1110000001011010
1110000001011011
1110000001011111
1110000001100000
1110000001100001
1110000001100010
1110000001100011
1110000001100100
1110000001100101
1110000001100110
1110000001100111
1110000001101000
1110000001101001
1110000001101010
1110000001101011
1110000001101100
1110000001101101
1110000001101111
1110000001111111
1110000010000000
1110000010000001
1110000010000010
1110000010000011
1110000010000100
1110000010000101
1110000010000110
1110000010000111
1110000010001000
1110000010001001
1110000010001010
1110000010001011
1110000010001100
1110000010001101
1110000010001111
1110000010010000
1110000010010001
1110000010010010
1110000010010011
1110000010010100
1110000010010101
1110000010010110
1110000010010111
1110000010011000
1110000010011001
1110000010011010
1110000010011011
1110000010011111
1110000010100000
1110000010100001
1110000010100010
1110000010100011
1110000010100100
1110000010100101
1110000010100110
1110000010100111
1110000010101000
1110000010101001
1110000010101010
1110000010101011
1110000010101100
1110000010101101
1110000010101111
1110000010110000
1110000010110001
1110000010110010
1110000010110011
1110000010110100
1110000010110101
1110000010110110
1110000010110111
1110000010111111
1110000011000000
1110000011000001
1110000011000010
1110000011000011
1110000011000100
1110000011000101
1110000011000110
1110000011000111
1110000011001000
1110000011001001
1110000011001010
1110000011001011
1110000011001100
1110000011001101
1110000011001111
1110000011010000
1110000011010001
1110000011010010
1110000011010011
1110000011010100
1110000011010101
1110000011010110
1110000011010111
1110000011011000
1110000011011001
1110000011011010
1110000011011011
1110000011011111
1110000011111111
1110000100000000
1110000100000001
1110000100000010
1110000100000011
1110000100000100
1110000100000101
1110000100000110
1110000100000111
1110000100001000
1110000100001001
1110000100001010
1110000100001011
1110000100001100
1110000100001101
1110000100001111
1110000100010000
1110000100010001
1110000100010010
1110000100010011
1110000100010100
1110000100010101
1110000100010110
1110000100010111
1110000100011000
1110000100011001
1110000100011010
1110000100011011
1110000100011111
1110000100100000
1110000100100001
1110000100100010
1110000100100011
1110000100100100
1110000100100101
1110000100100110
1110000100100111
1110000100101000
1110000100101001
1110000100101010
1110000100101011
1110000100101100
1110000100101101
1110000100101111
1110000100110000
1110000100110001
1110000100110010
1110000100110011
1110000100110100
1110000100110101
1110000100110110
1110000100110111
1110000100111111
1110000101000000
1110000101000001
1110000101000010
1110000101000011
1110000101000100
1110000101000101
1110000101000110
1110000101000111
1110000101001000
1110000101001001
1110000101001010
1110000101001011
1110000101001100
1110000101001101
1110000101001111
1110000101010000
1110000101010001
1110000101010010
1110000101010011
1110000101010100
1110000101010101
1110000101010110
1110000101010111
1110000101011000
1110000101011001
1110000101011010
1110000101011011
1110000101011111
1110000101100000
1110000101100001
1110000101100010
1110000101100011
1110000101100100
1110000101100101
1110000101100110
1110000101100111
1110000101101000
1110000101101001
1110000101101010
1110000101101011
1110000101101100
1110000101101101
1110000101101111
1110000101111111
1110000110000000
1110000110000001
1110000110000010
1110000110000011
1110000110000100
1110000110000101
1110000110000110
1110000110000111
1110000110001000
1110000110001001
1110000110001010
1110000110001011
1110000110001100
1110000110001101
1110000110001111
1110000110010000
1110000110010001
1110000110010010
1110000110010011
1110000110010100
1110000110010101
1110000110010110
1110000110010111
1110000110011000
1110000110011001
1110000110011010
1110000110011011
1110000110011111
1110000110100000
1110000110100001
1110000110100010
1110000110100011
1110000110100100
1110000110100101
1110000110100110
1110000110100111
1110000110101000
1110000110101001
1110000110101010
1110000110101011
1110000110101100
1110000110101101
1110000110101111
1110000110110000
1110000110110001
1110000110110010
1110000110110011
1110000110110100
1110000110110101
1110000110110110
1110000110110111
1110000110111111
1110000111111111
1110001000000000
1110001000000001
1110001000000010
1110001000000011
1110001000000100
1110001000000101
1110001000000110
1110001000000111
1110001000001000
1110001000001001
1110001000001010
1110001000001011
1110001000001100
1110001000001101
1110001000001111
1110001000010000
1110001000010001
1110001000010010
1110001000010011
1110001000010100
1110001000010101
1110001000010110
1110001000010111
1110001000011000
1110001000011001
1110001000011010
1110001000011011
1110001000011111
1110001000100000
1110001000100001
1110001000100010
1110001000100011
1110001000100100
1110001000100101
1110001000100110
1110001000100111
1110001000101000
1110001000101001
1110001000101010
1110001000101011
1110001000101100
1110001000101101
1110001000101111
1110001000110000
1110001000110001
1110001000110010
1110001000110011
1110001000110100
1110001000110101
1110001000110110
1110001000110111
1110001000111111
1110001001000000
1110001001000001
1110001001000010
1110001001000011
1110001001000100
1110001001000101
1110001001000110
1110001001000111
1110001001001000
1110001001001001
1110001001001010
1110001001001011
1110001001001100
1110001001001101
1110001001001111
1110001001010000
1110001001010001
1110001001010010
1110001001010011
1110001001010100
1110001001010101
1110001001010110
1110001001010111
1110001001011000
1110001001011001
1110001001011010
1110001001011011
1110001001011111
1110001001100000
1110001001100001
1110001001100010
1110001001100011
1110001001100100
1110001001100101
1110001001100110
1110001001100111
1110001001101000
1110001001101001
1110001001101010
1110001001101011
1110001001101100
1110001001101101
1110001001101111
1110001001111111
1110001010000000
1110001010000001
1110001010000010
1110001010000011
1110001010000100
1110001010000101
1110001010000110
1110001010000111
1110001010001000
1110001010001001
1110001010001010
1110001010001011
1110001010001100
1110001010001101
1110001010001111
1110001010010000
1110001010010001
1110001010010010
1110001010010011
1110001010010100
1110001010010101
1110001010010110
1110001010010111
1110001010011000
1110001010011001
1110001010011010
1110001010011011
1110001010011111
1110001010100000
1110001010100001
1110001010100010
1110001010100011
1110001010100100
1110001010100101
1110001010100110
1110001010100111
1110001010101000
1110001010101001
1110001010101010
1110001010101011
1110001010101100
1110001010101101
1110001010101111
1110001010110000
1110001010110001
1110001010110010
1110001010110011
1110001010110100
1110001010110101
1110001010110110
1110001010110111
1110001010111111
1110001011000000
1110001011000001
1110001011000010
1110001011000011
1110001011000100
1110001011000101
1110001011000110
1110001011000111
1110001011001000
1110001011001001
1110001011001010
1110001011001011
1110001011001100
1110001011001101
1110001011001111
1110001011010000
1110001011010001
1110001011010010
1110001011010011
1110001011010100
1110001011010101
1110001011010110
1110001011010111
1110001011011000
1110001011011001
1110001011011010
1110001011011011
1110001011011111
1110001011111111
1110001100000000
1110001100000001
1110001100000010
1110001100000011
1110001100000100
1110001100000101
1110001100000110
1110001100000111
1110001100001000
1110001100001001
1110001100001010
1110001100001011
1110001100001100
1110001100001101
1110001100001111
1110001100010000
1110001100010001
1110001100010010
1110001100010011
1110001100010100
1110001100010101
1110001100010110
1110001100010111
1110001100011000
1110001100011001
1110001100011010
1110001100011011
1110001100011111
1110001100100000
1110001100100001
1110001100100010
1110001100100011
1110001100100100
1110001100100101
1110001100100110
1110001100100111
1110001100101000
1110001100101001
1110001100101010
1110001100101011
1110001100101100
1110001100101101
1110001100101111
1110001100110000
1110001100110001
1110001100110010
1110001100110011
1110001100110100
1110001100110101
1110001100110110
1110001100110111
1110001100111111
1110001101000000
1110001101000001
1110001101000010
1110001101000011
1110001101000100
1110001101000101
1110001101000110
1110001101000111
1110001101001000
1110001101001001
1110001101001010
1110001101001011
1110001101001100
1110001101001101
1110001101001111
1110001101010000
1110001101010001
1110001101010010
1110001101010011
1110001101010100
1110001101010101
1110001101010110
1110001101010111
1110001101011000
1110001101011001
1110001101011010
1110001101011011
1110001101011111
1110001101100000
1110001101100001
1110001101100010
1110001101100011
1110001101100100
1110001101100101
1110001101100110
1110001101100111
1110001101101000
1110001101101001
1110001101101010
1110001101101011
1110001101101100
1110001101101101
1110001101101111
1110001101111111
1110001111111111
1110010000000000
1110010000000001
1110010000000010
1110010000000011
1110010000000100
1110010000000101
1110010000000110
1110010000000111
1110010000001000
1110010000001001
1110010000001010
1110010000001011
1110010000001100
1110010000001101
1110010000001111
1110010000010000
1110010000010001
1110010000010010
1110010000010011
1110010000010100
1110010000010101
1110010000010110
1110010000010111
1110010000011000
1110010000011001
1110010000011010
1110010000011011
1110010000011111
1110010000100000
1110010000100001
1110010000100010
1110010000100011
1110010000100100
1110010000100101
1110010000100110
1110010000100111
1110010000101000
1110010000101001
1110010000101010
1110010000101011
1110010000101100
1110010000101101
1110010000101111
1110010000110000
1110010000110001
1110010000110010
1110010000110011
1110010000110100
1110010000110101
1110010000110110
1110010000110111
1110010000111111
1110010001000000
1110010001000001
1110010001000010
1110010001000011
1110010001000100
1110010001000101
1110010001000110
1110010001000111
1110010001001000
1110010001001001
1110010001001010
1110010001001011
1110010001001100
1110010001001101
1110010001001111
1110010001010000
1110010001010001
1110010001010010
1110010001010011
1110010001010100
1110010001010101
1110010001010110
1110010001010111
1110010001011000
1110010001011001
1110010001011010
1110010001011011
1110010001011111
1110010001100000
1110010001100001
1110010001100010
1110010001100011
1110010001100100
1110010001100101
1110010001100110
1110010001100111
1110010001101000
1110010001101001
1110010001101010
1110010001101011
1110010001101100
1110010001101101
1110010001101111
1110010001111111
1110010010000000
1110010010000001
1110010010000010
1110010010000011
1110010010000100
1110010010000101
1110010010000110
1110010010000111
1110010010001000
1110010010001001
1110010010001010
1110010010001011
1110010010001100
1110010010001101
1110010010001111
1110010010010000
1110010010010001
1110010010010010
1110010010010011
1110010010010100
1110010010010101
1110010010010110
1110010010010111
1110010010011000
1110010010011001
1110010010011010
1110010010011011
1110010010011111
1110010010100000
1110010010100001
1110010010100010
1110010010100011
1110010010100100
1110010010100101
1110010010100110
1110010010100111
1110010010101000
1110010010101001
1110010010101010
1110010010101011
1110010010101100
1110010010101101
1110010010101111
1110010010110000
1110010010110001
1110010010110010
1110010010110011
1110010010110100
1110010010110101
1110010010110110
1110010010110111
1110010010111111
1110010011000000
1110010011000001
1110010011000010
1110010011000011
1110010011000100
1110010011000101
1110010011000110
1110010011000111
1110010011001000
1110010011001001
1110010011001010
1110010011001011
1110010011001100
1110010011001101
1110010011001111
1110010011010000
1110010011010001
1110010011010010
1110010011010011
1110010011010100
1110010011010101
1110010011010110
1110010011010111
1110010011011000
1110010011011001
1110010011011010
1110010011011011
1110010011011111
1110010011111111
1110010100000000
1110010100000001
1110010100000010
1110010100000011
1110010100000100
1110010100000101
1110010100000110
1110010100000111
1110010100001000
1110010100001001
1110010100001010
1110010100001011
1110010100001100
1110010100001101
1110010100001111
1110010100010000
1110010100010001
1110010100010010
1110010100010011
1110010100010100
1110010100010101
1110010100010110
1110010100010111
1110010100011000
1110010100011001
1110010100011010
1110010100011011
1110010100011111
1110010100100000
1110010100100001
1110010100100010
1110010100100011
1110010100100100
1110010100100101
1110010100100110
1110010100100111
1110010100101000
1110010100101001
1110010100101010
1110010100101011
1110010100101100
1110010100101101
1110010100101111
1110010100110000
1110010100110001
1110010100110010
1110010100110011
1110010100110100
1110010100110101
1110010100110110
1110010100110111
1110010100111111
1110010101000000
1110010101000001
1110010101000010
1110010101000011
1110010101000100
1110010101000101
1110010101000110
1110010101000111
1110010101001000
1110010101001001
1110010101001010
1110010101001011
1110010101001100
1110010101001101
1110010101001111
1110010101010000
1110010101010001
1110010101010010
1110010101010011
1110010101010100
1110010101010101
1110010101010110
1110010101010111
1110010101011000
1110010101011001
1110010101011010
1110010101011011
1110010101011111
1110010101100000
1110010101100001
1110010101100010
1110010101100011
1110010101100100
1110010101100101
1110010101100110
1110010101100111
1110010101101000
1110010101101001
1110010101101010
1110010101101011
1110010101101100
1110010101101101
1110010101101111
1110010101111111
1110010110000000
1110010110000001
1110010110000010
1110010110000011
1110010110000100
1110010110000101
1110010110000110
1110010110000111
1110010110001000
1110010110001001
1110010110001010
1110010110001011
1110010110001100
1110010110001101
1110010110001111
1110010110010000
1110010110010001
1110010110010010
1110010110010011
1110010110010100
1110010110010101
1110010110010110
1110010110010111
1110010110011000
1110010110011001
1110010110011010
1110010110011011
1110010110011111
1110010110100000
1110010110100001
1110010110100010
1110010110100011
1110010110100100
1110010110100101
1110010110100110
1110010110100111
1110010110101000
1110010110101001
1110010110101010
1110010110101011
1110010110101100
1110010110101101
1110010110101111
1110010110110000
1110010110110001
1110010110110010
1110010110110011
1110010110110100
1110010110110101
1110010110110110
1110010110110111
1110010110111111
1110010111111111
1110011000000000
1110011000000001
1110011000000010
1110011000000011
1110011000000100
1110011000000101
1110011000000110
1110011000000111
1110011000001000
1110011000001001
1110011000001010
1110011000001011
1110011000001100
1110011000001101
1110011000001111
1110011000010000
1110011000010001
1110011000010010
1110011000010011
1110011000010100
1110011000010101
1110011000010110
1110011000010111
1110011000011000
1110011000011001
1110011000011010
1110011000011011
1110011000011111
1110011000100000
1110011000100001
1110011000100010
1110011000100011
1110011000100100
1110011000100101
1110011000100110
1110011000100111
1110011000101000
1110011000101001
1110011000101010
1110011000101011
1110011000101100
1110011000101101
1110011000101111
1110011000110000
1110011000110001
1110011000110010
1110011000110011
1110011000110100
1110011000110101
1110011000110110
1110011000110111
1110011000111111
1110011001000000
1110011001000001
1110011001000010
1110011001000011
1110011001000100
1110011001000101
1110011001000110
1110011001000111
1110011001001000
1110011001001001
1110011001001010
1110011001001011
1110011001001100
1110011001001101
1110011001001111
1110011001010000
1110011001010001
1110011001010010
1110011001010011
1110011001010100
1110011001010101
1110011001010110
1110011001010111
1110011001011000
1110011001011001
1110011001011010
1110011001011011
1110011001011111
1110011001100000
1110011001100001
1110011001100010
1110011001100011
1110011001100100
1110011001100101
1110011001100110
1110011001100111
1110011001101000
1110011001101001
1110011001101010
1110011001101011
1110011001101100
1110011001101101
1110011001101111
1110011001111111
1110011010000000
1110011010000001
1110011010000010
1110011010000011
1110011010000100
1110011010000101
1110011010000110
1110011010000111
1110011010001000
1110011010001001
1110011010001010
1110011010001011
1110011010001100
1110011010001101
1110011010001111
1110011010010000
1110011010010001
1110011010010010
1110011010010011
1110011010010100
1110011010010101
1110011010010110
1110011010010111
1110011010011000
1110011010011001
1110011010011010
1110011010011011
1110011010011111
1110011010100000
1110011010100001
1110011010100010
1110011010100011
1110011010100100
1110011010100101
1110011010100110
1110011010100111
1110011010101000
1110011010101001
1110011010101010
1110011010101011
1110011010101100
1110011010101101
1110011010101111
1110011010110000
1110011010110001
1110011010110010
1110011010110011
1110011010110100
1110011010110101
1110011010110110
1110011010110111
1110011010111111
1110011011000000
1110011011000001
1110011011000010
1110011011000011
1110011011000100
1110011011000101
1110011011000110
1110011011000111
1110011011001000
1110011011001001
1110011011001010
1110011011001011
1110011011001100
1110011011001101
1110011011001111
1110011011010000
1110011011010001
1110011011010010
1110011011010011
1110011011010100
1110011011010101
1110011011010110
1110011011010111
1110011011011000
1110011011011001
1110011011011010
1110011011011011
1110011011011111
1110011011111111
1110011111111111
1110100000000000
1110100000000001
1110100000000010
1110100000000011
1110100000000100
1110100000000101
1110100000000110
1110100000000111
1110100000001000
1110100000001001
1110100000001010
1110100000001011
1110100000001100
1110100000001101
1110100000001111
1110100000010000
1110100000010001
1110100000010010
1110100000010011
1110100000010100
1110100000010101
1110100000010110
1110100000010111
1110100000011000
1110100000011001
1110100000011010
1110100000011011
1110100000011111
1110100000100000
1110100000100001
1110100000100010
1110100000100011
1110100000100100
1110100000100101
1110100000100110
1110100000100111
1110100000101000
1110100000101001
1110100000101010
1110100000101011
1110100000101100
1110100000101101
1110100000101111
1110100000110000
1110100000110001
1110100000110010
1110100000110011
1110100000110100
1110100000110101
1110100000110110
1110100000110111
1110100000111111
1110100001000000
1110100001000001
1110100001000010
1110100001000011
1110100001000100
1110100001000101
1110100001000110
1110100001000111
1110100001001000
1110100001001001
1110100001001010
1110100001001011
1110100001001100
1110100001001101
1110100001001111
1110100001010000
1110100001010001
1110100001010010
1110100001010011
1110100001010100
1110100001010101
1110100001010110
1110100001010111
1110100001011000
1110100001011001
1110100001011010
1110100001011011
1110100001011111
1110100001100000
1110100001100001
1110100001100010
1110100001100011
1110100001100100
1110100001100101
1110100001100110
1110100001100111
1110100001101000
1110100001101001
1110100001101010
1110100001101011
1110100001101100
1110100001101101
1110100001101111
1110100001111111
1110100010000000
1110100010000001
1110100010000010
1110100010000011
1110100010000100
1110100010000101
1110100010000110
1110100010000111
1110100010001000
1110100010001001
1110100010001010
1110100010001011
1110100010001100
1110100010001101
1110100010001111
1110100010010000
1110100010010001
1110100010010010
1110100010010011
1110100010010100
1110100010010101
1110100010010110
1110100010010111
1110100010011000
1110100010011001
1110100010011010
1110100010011011
1110100010011111
1110100010100000
1110100010100001
1110100010100010
1110100010100011
1110100010100100
1110100010100101
1110100010100110
1110100010100111
1110100010101000
1110100010101001
1110100010101010
1110100010101011
1110100010101100
1110100010101101
1110100010101111
1110100010110000
1110100010110001
1110100010110010
1110100010110011
1110100010110100
1110100010110101
1110100010110110
1110100010110111
1110100010111111
1110100011000000
1110100011000001
1110100011000010
1110100011000011
1110100011000100
1110100011000101
1110100011000110
1110100011000111
1110100011001000
1110100011001001
1110100011001010
1110100011001011
1110100011001100
1110100011001101
1110100011001111
1110100011010000
1110100011010001
1110100011010010
1110100011010011
1110100011010100
1110100011010101
1110100011010110
1110100011010111
1110100011011000
1110100011011001
1110100011011010
1110100011011011
1110100011011111
1110100011111111
1110100100000000
1110100100000001
1110100100000010
1110100100000011
1110100100000100
1110100100000101
1110100100000110
1110100100000111
1110100100001000
1110100100001001
1110100100001010
1110100100001011
1110100100001100
1110100100001101
1110100100001111
1110100100010000
1110100100010001
1110100100010010
1110100100010011
1110100100010100
1110100100010101
1110100100010110
1110100100010111
1110100100011000
1110100100011001
1110100100011010
1110100100011011
1110100100011111
1110100100100000
1110100100100001
1110100100100010
1110100100100011
1110100100100100
1110100100100101
1110100100100110
1110100100100111
1110100100101000
1110100100101001
1110100100101010
1110100100101011
1110100100101100
1110100100101101
1110100100101111
1110100100110000
1110100100110001
1110100100110010
1110100100110011
1110100100110100
1110100100110101
1110100100110110
1110100100110111
1110100100111111
1110100101000000
1110100101000001
1110100101000010
1110100101000011
1110100101000100
1110100101000101
1110100101000110
1110100101000111
1110100101001000
1110100101001001
1110100101001010
1110100101001011
1110100101001100
1110100101001101
1110100101001111
1110100101010000
1110100101010001
1110100101010010
1110100101010011
1110100101010100
1110100101010101
1110100101010110
1110100101010111
1110100101011000
1110100101011001
1110100101011010
1110100101011011
1110100101011111
1110100101100000
1110100101100001
1110100101100010
1110100101100011
1110100101100100
1110100101100101
1110100101100110
1110100101100111
1110100101101000
1110100101101001
1110100101101010
1110100101101011
1110100101101100
1110100101101101
1110100101101111
1110100101111111
1110100110000000
1110100110000001
1110100110000010
1110100110000011
1110100110000100
1110100110000101
1110100110000110
1110100110000111
1110100110001000
1110100110001001
1110100110001010
1110100110001011
1110100110001100
1110100110001101
1110100110001111
1110100110010000
1110100110010001
1110100110010010
1110100110010011
1110100110010100
1110100110010101
1110100110010110
1110100110010111
1110100110011000
1110100110011001
1110100110011010
1110100110011011
1110100110011111
1110100110100000
1110100110100001
1110100110100010
1110100110100011
1110100110100100
1110100110100101
1110100110100110
1110100110100111
1110100110101000
1110100110101001
1110100110101010
1110100110101011
1110100110101100
1110100110101101
1110100110101111
1110100110110000
1110100110110001
1110100110110010
1110100110110011
1110100110110100
1110100110110101
1110100110110110
1110100110110111
1110100110111111
1110100111111111
1110101000000000
1110101000000001
1110101000000010
1110101000000011
1110101000000100
1110101000000101
1110101000000110
1110101000000111
1110101000001000
1110101000001001
1110101000001010
1110101000001011
1110101000001100
1110101000001101
1110101000001111
1110101000010000
1110101000010001
1110101000010010
1110101000010011
1110101000010100
1110101000010101
1110101000010110
1110101000010111
1110101000011000
1110101000011001
1110101000011010
1110101000011011
1110101000011111
1110101000100000
1110101000100001
1110101000100010
1110101000100011
1110101000100100
1110101000100101
1110101000100110
1110101000100111
1110101000101000
1110101000101001
1110101000101010
1110101000101011
1110101000101100
1110101000101101
1110101000101111
1110101000110000
1110101000110001
1110101000110010
1110101000110011
1110101000110100
1110101000110101
1110101000110110
1110101000110111
1110101000111111
1110101001000000
1110101001000001
1110101001000010
1110101001000011
1110101001000100
1110101001000101
1110101001000110
1110101001000111
1110101001001000
1110101001001001
1110101001001010
1110101001001011
1110101001001100
1110101001001101
1110101001001111
1110101001010000
1110101001010001
1110101001010010
1110101001010011
1110101001010100
1110101001010101
1110101001010110
1110101001010111
1110101001011000
1110101001011001
1110101001011010
1110101001011011
1110101001011111
1110101001100000
1110101001100001
1110101001100010
1110101001100011
1110101001100100
1110101001100101
1110101001100110
1110101001100111
1110101001101000
1110101001101001
1110101001101010
1110101001101011
1110101001101100
1110101001101101
1110101001101111
1110101001111111
1110101010000000
1110101010000001
1110101010000010
1110101010000011
1110101010000100
1110101010000101
1110101010000110
1110101010000111
1110101010001000
1110101010001001
1110101010001010
1110101010001011
1110101010001100
1110101010001101
1110101010001111
1110101010010000
1110101010010001
1110101010010010
1110101010010011
1110101010010100
1110101010010101
1110101010010110
1110101010010111
1110101010011000
1110101010011001
1110101010011010
1110101010011011
1110101010011111
1110101010100000
1110101010100001
1110101010100010
1110101010100011
1110101010100100
1110101010100101
1110101010100110
1110101010100111
1110101010101000
1110101010101001
1110101010101010
1110101010101011
1110101010101100
1110101010101101
1110101010101111
1110101010110000
1110101010110001
1110101010110010
1110101010110011
1110101010110100
1110101010110101
1110101010110110
1110101010110111
1110101010111111
1110101011000000
1110101011000001
1110101011000010
1110101011000011
1110101011000100
1110101011000101
1110101011000110
1110101011000111
1110101011001000
1110101011001001
1110101011001010
1110101011001011
1110101011001100
1110101011001101
1110101011001111
1110101011010000
1110101011010001
1110101011010010
1110101011010011
1110101011010100
1110101011010101
1110101011010110
1110101011010111
1110101011011000
1110101011011001
1110101011011010
1110101011011011
1110101011011111
1110101011111111
1110101100000000
1110101100000001
1110101100000010
1110101100000011
1110101100000100
1110101100000101
1110101100000110
1110101100000111
1110101100001000
1110101100001001
1110101100001010
1110101100001011
1110101100001100
1110101100001101
1110101100001111
1110101100010000
1110101100010001
1110101100010010
1110101100010011
1110101100010100
1110101100010101
1110101100010110
1110101100010111
1110101100011000
1110101100011001
1110101100011010
1110101100011011
1110101100011111
1110101100100000
1110101100100001
1110101100100010
1110101100100011
1110101100100100
1110101100100101
1110101100100110
1110101100100111
1110101100101000
1110101100101001
1110101100101010
1110101100101011
1110101100101100
1110101100101101
1110101100101111
1110101100110000
1110101100110001
1110101100110010
1110101100110011
1110101100110100
1110101100110101
1110101100110110
1110101100110111
1110101100111111
1110101101000000
1110101101000001
1110101101000010
1110101101000011
1110101101000100
1110101101000101
1110101101000110
1110101101000111
1110101101001000
1110101101001001
1110101101001010
1110101101001011
1110101101001100
1110101101001101
1110101101001111
1110101101010000
1110101101010001
1110101101010010
1110101101010011
1110101101010100
1110101101010101
1110101101010110
1110101101010111
1110101101011000
1110101101011001
1110101101011010
1110101101011011
1110101101011111
1110101101100000
1110101101100001
1110101101100010
1110101101100011
1110101101100100
1110101101100101
1110101101100110
1110101101100111
1110101101101000
1110101101101001
1110101101101010
1110101101101011
1110101101101100
1110101101101101
1110101101101111
1110101101111111
1110101111111111
1110110000000000
1110110000000001
1110110000000010
1110110000000011
1110110000000100
1110110000000101
1110110000000110
1110110000000111
1110110000001000
1110110000001001
1110110000001010
1110110000001011
1110110000001100
1110110000001101
1110110000001111
1110110000010000
1110110000010001
1110110000010010
1110110000010011
1110110000010100
1110110000010101
1110110000010110
1110110000010111
1110110000011000
1110110000011001
1110110000011010
1110110000011011
1110110000011111
1110110000100000
1110110000100001
1110110000100010
1110110000100011
1110110000100100
1110110000100101
1110110000100110
1110110000100111
1110110000101000
1110110000101001
1110110000101010
1110110000101011
1110110000101100
1110110000101101
1110110000101111
1110110000110000
1110110000110001
1110110000110010
1110110000110011
1110110000110100
1110110000110101
1110110000110110
1110110000110111
1110110000111111
1110110001000000
1110110001000001
1110110001000010
1110110001000011
1110110001000100
1110110001000101
1110110001000110
1110110001000111
1110110001001000
1110110001001001
1110110001001010
1110110001001011
1110110001001100
1110110001001101
1110110001001111
1110110001010000
1110110001010001
1110110001010010
1110110001010011
1110110001010100
1110110001010101
1110110001010110
1110110001010111
1110110001011000
1110110001011001
1110110001011010
1110110001011011
1110110001011111
1110110001100000
1110110001100001
1110110001100010
1110110001100011
1110110001100100
1110110001100101
1110110001100110
1110110001100111
1110110001101000
1110110001101001
1110110001101010
1110110001101011
1110110001101100
1110110001101101
1110110001101111
1110110001111111
1110110010000000
1110110010000001
1110110010000010
1110110010000011
1110110010000100
1110110010000101
1110110010000110
1110110010000111
1110110010001000
1110110010001001
1110110010001010
1110110010001011
1110110010001100
1110110010001101
1110110010001111
1110110010010000
1110110010010001
1110110010010010
1110110010010011
1110110010010100
1110110010010101
1110110010010110
1110110010010111
1110110010011000
1110110010011001
1110110010011010
1110110010011011
1110110010011111
1110110010100000
1110110010100001
1110110010100010
1110110010100011
1110110010100100
1110110010100101
1110110010100110
1110110010100111
1110110010101000
1110110010101001
1110110010101010
1110110010101011
1110110010101100
1110110010101101
1110110010101111
1110110010110000
1110110010110001
1110110010110010
1110110010110011
1110110010110100
1110110010110101
1110110010110110
1110110010110111
1110110010111111
1110110011000000
1110110011000001
1110110011000010
1110110011000011
1110110011000100
1110110011000101
1110110011000110
1110110011000111
1110110011001000
1110110011001001
1110110011001010
1110110011001011
1110110011001100
1110110011001101
1110110011001111
1110110011010000
1110110011010001
1110110011010010
1110110011010011
1110110011010100
1110110011010101
1110110011010110
1110110011010111
1110110011011000
1110110011011001
1110110011011010
1110110011011011
1110110011011111
1110110011111111
1110110100000000
1110110100000001
1110110100000010
1110110100000011
1110110100000100
1110110100000101
1110110100000110
1110110100000111
1110110100001000
1110110100001001
1110110100001010
1110110100001011
1110110100001100
1110110100001101
1110110100001111
1110110100010000
1110110100010001
1110110100010010
1110110100010011
1110110100010100
1110110100010101
1110110100010110
1110110100010111
1110110100011000
1110110100011001
1110110100011010
1110110100011011
1110110100011111
1110110100100000
1110110100100001
1110110100100010
1110110100100011
1110110100100100
1110110100100101
1110110100100110
1110110100100111
1110110100101000
1110110100101001
1110110100101010
1110110100101011
1110110100101100
1110110100101101
1110110100101111
1110110100110000
1110110100110001
1110110100110010
1110110100110011
1110110100110100
1110110100110101
1110110100110110
1110110100110111
1110110100111111
1110110101000000
1110110101000001
1110110101000010
1110110101000011
1110110101000100
1110110101000101
1110110101000110
1110110101000111
1110110101001000
1110110101001001
1110110101001010
1110110101001011
1110110101001100
1110110101001101
1110110101001111
1110110101010000
1110110101010001
1110110101010010
1110110101010011
1110110101010100
1110110101010101
1110110101010110
1110110101010111
1110110101011000
1110110101011001
1110110101011010
1110110101011011
1110110101011111
1110110101100000
1110110101100001
1110110101100010
1110110101100011
1110110101100100
1110110101100101
1110110101100110
1110110101100111
1110110101101000
1110110101101001
1110110101101010
1110110101101011
1110110101101100
1110110101101101
1110110101101111
1110110101111111
1110110110000000
1110110110000001
1110110110000010
1110110110000011
1110110110000100
1110110110000101
1110110110000110
1110110110000111
1110110110001000
1110110110001001
1110110110001010
1110110110001011
1110110110001100
1110110110001101
1110110110001111
1110110110010000
1110110110010001
1110110110010010
1110110110010011
1110110110010100
1110110110010101
1110110110010110
1110110110010111
1110110110011000
1110110110011001
1110110110011010
1110110110011011
1110110110011111
1110110110100000
1110110110100001
1110110110100010
1110110110100011
1110110110100100
1110110110100101
1110110110100110
1110110110100111
1110110110101000
1110110110101001
1110110110101010
1110110110101011
1110110110101100
1110110110101101
1110110110101111
1110110110110000
1110110110110001
1110110110110010
1110110110110011
1110110110110100
1110110110110101
1110110110110110
1110110110110111
1110110110111111
1110110111111111
1110111111111111