60837 | 57634 
57994 | 58071 
58005 | 60459 
60484 | 57677 
58138 | 58505 
58648 | 57399 
59493 | 57984 
59825 | 59526 
57450 | 59560 
60164 | 60584 
60613 | 59911 
58453 | 57618 
58646 | 57999 
58968 | 58071 
58691 | 58453 
59543 | 57697 
60193 | 60527 
58517 | 58506 
59443 | 58188 
60745 | 58167 
