0 | 0 | 59392 | bitsPassedTilMsg: 45
59435 | 58656 | 57426 | bitsPassedTilMsg: 2
57521 | 60432 | 58914 | bitsPassedTilMsg: 22
59494 | 57599 | 57523 | bitsPassedTilMsg: 54
58572 | 59455 | 59595 | bitsPassedTilMsg: 1
58700 | 58584 | 60011 | bitsPassedTilMsg: 2
60758 | 58016 | 59716 | bitsPassedTilMsg: 5
57616 | 59018 | 58047 | bitsPassedTilMsg: 37
57874 | 59135 | 58965 | bitsPassedTilMsg: 50
57986 | 60415 | 60839 | bitsPassedTilMsg: 28
60159 | 57375 | 60799 | bitsPassedTilMsg: 34
60073 | 58412 | 57442 | bitsPassedTilMsg: 21
58054 | 58959 | 58402 | bitsPassedTilMsg: 32
58879 | 59594 | 61439 | bitsPassedTilMsg: 1
57731 | 60015 | 57492 | bitsPassedTilMsg: 10
60077 | 59908 | 58381 | bitsPassedTilMsg: 32
58795 | 59831 | 57535 | bitsPassedTilMsg: 12
58897 | 59651 | 57873 | bitsPassedTilMsg: 43
58921 | 58115 | 60675 | bitsPassedTilMsg: 3
58495 | 58162 | 58769 | bitsPassedTilMsg: 28